{
  "type": "service_account",
  "project_id": "prueba-df8b4",
  "private_key_id": "5b72f31cf55950d45b4a55e9bdcad824ff87afc9",
  "private_key": "-----BEGIN PRIVATE KEY-----\nMIIEvQIBADANBgkqhkiG9w0BAQEFAASCBKcwggSjAgEAAoIBAQCvSeS0b4mO/bXj\nB1O/ljAG2ak0ESLaMZfwljUComygunkAK9srg0BQ9/Lh7J96xtER0a72yaH9HNYK\nqzG+WXvta8NtCMFB/FyFo3PeTZAeiZAlcmb4RjVNSJbaAJHzGK9+rWWY5YW/lFhL\n2bii9VqAF9mCJx9lGeKpupa2UrP30bxL2l1ZQnDVA7946USTiwOza+2+OSHHa6wh\n1uU+TnIPir3gfIWqmRO1sReyw+bpVSCRxLcf2CdOREDOK+VDZsCc/pL3KM0O/cH7\n+pyLIsQeI4uizj4idDFcaPIdAhFB3BVMsASa1FQWl36gIi6XafJva22T6+yMRKVt\nVh4k8OXBAgMBAAECggEAHxUGReyFQuLALuqssgtKptxPwZjMSk6C97la2wW8J2AJ\ndrtQGM4kSHc/DUqtGNNKXVOGJ+KnI7/KQIgMwQkTDY2PULU9t5qtOVE7iY7NYGza\nL5myopGof/TAMxXoy2d0Lw1GN69zYP5IDeMkd1j0XEReYFLZoU7Ov3QDp37QxL+T\n932m5sMsGvC4jSRomq59NS11Kh4ThRFdJ8ngdPNsM/hs+2Rwkccj/Ba559nG8l3d\nLdpviRrm0pq7YXI2qrVn+tuga+oQnp7Rz9OHRQqyoZS1wYxk5MXYSGBHnyw0LyAZ\nXKDAk3NW4D/rOU1IFQA8czt5mmhSle2duwTxKCPmJQKBgQDWTVQ4PHdGIL1gP+yc\nfkUfrj464Kb3VEIQu0PNoCz3+zmzKJqtQjAz1INW6534U4EsLZQwME7meIxdoU02\nCOczKKYaGznTcr4TLmn5x3UenncCctwGg31/UtoSrd2V5jVrlSzuqQDF+wecY7HS\nP6MbQsuE5J+gj5CHGwWg5oSgcwKBgQDRZUEH9XhXImbxMLoXG5I+9rDUjq3z1inu\nu70CGV03Y39N0qkIfhe5f/iCRMl6+TSP7EWOaeXowFwi97NZzSqSOp20D7aRnjMd\n4aXkSdBqY3gfC6OQTm5bMZ3aRPXtMnNNa8YHEg6Ks8P42uevDk1+kCG1OjcPmZF5\nZdbign3X+wKBgBT8iazgLwYNGr6cQ/2nV/mcRLfbXD6IX9fnnuI6N20piyMCbPNe\nsf3BaANRG60/8Dx1UjfN40wqrgRVUYxjHtEhv/J6jBUq/XY/a11srQmMlzcELIvu\nwJGBeZ2urS6K1txsRXQx1MOOq9Yi5T0jwkNfLTMceI1uwcaZXNm++WoFAoGAQse9\nDrG9mGRzWjaFEruLT6NTT+bVGW/S3b1oERRPw0trHUGzAO9d1541fi4754k0tzXO\nFRY26Zz3hXtj6p7hFdO12egs/JHskXoWcxELc/KXK6eFmY856MGRKzxVBjnRxf46\nIKUkmB2uwV3nB9BS7KtA5NBVIReD6qiM+J5PTiMCgYEAiMC5TTEhNqZirIft6Zk5\nx25Prt9dzAYZuvW90wSry4XW+Z+TAuxLlGVXZcotL0S8oxjihlILpfdK+wEOHDci\nMdRGrrhEsHZmHzeZ0ucyFpL5iY5sOxWxdpPjU4iJRAtxBMO5SPNZRUO2vUtTO1OD\nmw3Af+RuNCp3/xt42WXGE4w=\n-----END PRIVATE KEY-----\n",
  "client_email": "firebase-adminsdk-r6g9d@prueba-df8b4.iam.gserviceaccount.com",
  "client_id": "109465231640311047663",
  "auth_uri": "https://accounts.google.com/o/oauth2/auth",
  "token_uri": "https://oauth2.googleapis.com/token",
  "auth_provider_x509_cert_url": "https://www.googleapis.com/oauth2/v1/certs",
  "client_x509_cert_url": "https://www.googleapis.com/robot/v1/metadata/x509/firebase-adminsdk-r6g9d%40prueba-df8b4.iam.gserviceaccount.com"
}
